{
    "name": "ActionCode.AnimatorTrigger.Runtime",
    "rootNamespace": "ActionCode.AnimatorTriggers",
    "references": [
        "GUID:35033a022112b114ba92fd560f7ddb17",
        "GUID:09275cd1284174a43bc0d48b89073298"
    ],
    "includePlatforms": [],
    "excludePlatforms": [],
    "allowUnsafeCode": false,
    "overrideReferences": false,
    "precompiledReferences": [],
    "autoReferenced": true,
    "defineConstraints": [],
    "versionDefines": [],
    "noEngineReferences": false
}